<?xml version="1.0" encoding="UTF-8" standalone="no"?>
<svg
   xmlns:dc="http://purl.org/dc/elements/1.1/"
   xmlns:cc="http://creativecommons.org/ns#"
   xmlns:rdf="http://www.w3.org/1999/02/22-rdf-syntax-ns#"
   xmlns:svg="http://www.w3.org/2000/svg"
   xmlns="http://www.w3.org/2000/svg"
   width="310mm"
   height="70mm"
   viewBox="0 0 310 70"
   version="1.1"
   id="svg8">
  <defs
     id="defs2" />
  <metadata
     id="metadata5">
    <rdf:RDF>
      <cc:Work
         rdf:about="">
        <dc:format>image/svg+xml</dc:format>
        <dc:type
           rdf:resource="http://purl.org/dc/dcmitype/StillImage" />
        <dc:title></dc:title>
      </cc:Work>
    </rdf:RDF>
  </metadata>
  <g
     id="layer1"
     style="display:inline">
    <g
       id="g911"
       transform="matrix(2.4194947,0,0,2.4194947,-182.50247,-409.77449)"
       style="opacity:0.9888">
      <g
         transform="matrix(0.76374499,0,0,0.76374499,79.007357,96.347475)"
         id="g847">
        <g
           id="g893">
          <text
             id="text12"
             y="112.85866"
             x="38.484306"
             style="font-style:normal;font-weight:normal;font-size:10.5833px;line-height:1.25;font-family:sans-serif;letter-spacing:0.241978px;fill:#4d4d4d;fill-opacity:1;stroke:none;stroke-width:0.264583"
             xml:space="preserve"><tspan
               style="font-style:normal;font-variant:normal;font-weight:bold;font-stretch:normal;font-size:10.5833px;font-family:Montserrat;-inkscape-font-specification:'Montserrat, Normal';font-variant-ligatures:normal;font-variant-caps:normal;font-variant-numeric:normal;font-variant-east-asian:normal;fill:#4d4d4d;fill-opacity:1;stroke-width:0.264583"
               y="112.85866"
               x="38.484306"
               id="tspan10"
               dx="0">Moving Day Cleaning</tspan></text>
          <text
             id="text16"
             y="128.5649"
             x="37.055714"
             style="font-style:normal;font-weight:normal;font-size:9.81399px;line-height:1.25;font-family:sans-serif;letter-spacing:0.160364px;fill:#4d4d4d;fill-opacity:1;stroke:none;stroke-width:0.24535"
             xml:space="preserve"
             transform="scale(1.0474805,0.95467169)"><tspan
               style="font-style:normal;font-variant:normal;font-weight:600;font-stretch:normal;font-size:5.5613px;font-family:Montserrat;-inkscape-font-specification:'Montserrat, Semi-Bold';font-variant-ligatures:normal;font-variant-caps:normal;font-variant-numeric:normal;font-variant-east-asian:normal;fill:#4d4d4d;fill-opacity:1;stroke-width:0.24535"
               y="128.5649"
               x="37.055714"
               id="tspan14">Professional Cleaning Service</tspan></text>
        </g>
      </g>
      <path
         id="path18"
         d="m 104.9669,171.55076 c 0,24.90085 0,24.99927 0,24.99927"
         style="fill:none;stroke:#4d4d4d;stroke-width:0.784872;stroke-linecap:butt;stroke-linejoin:miter;stroke-miterlimit:4;stroke-dasharray:none;stroke-opacity:1" />
      <g
         id="g898"
         transform="matrix(1.0291881,0,0,1.0291881,-3.2908718,-5.8846333)">
        <path
           style="fill:#ff834f;fill-opacity:1;stroke:#ff834f;stroke-width:0.338;stroke-miterlimit:4;stroke-dasharray:none;stroke-opacity:1"
           id="path869"
           d="m 95.25,182.56251 -1.13137,6.86863 -1.131371,-6.86863 -6.86863,-1.13137 6.86863,-1.13137 1.13137,-6.86863 1.131371,6.86863 6.86863,1.13137 z"
           transform="rotate(-14.5,92.636727,182.65702)" />
        <path
           transform="matrix(0.43566644,-0.112671,0.112671,0.43566644,20.724661,110.9668)"
           d="m 95.25,182.56251 -1.13137,6.86863 -1.131371,-6.86863 -6.86863,-1.13137 6.86863,-1.13137 1.13137,-6.86863 1.131371,6.86863 6.86863,1.13137 z"
           id="path885"
           style="fill:#ff834f;fill-opacity:1;stroke:#ff834f;stroke-width:0.338;stroke-miterlimit:4;stroke-dasharray:none;stroke-opacity:1" />
        <path
           style="fill:#ff834f;fill-opacity:1;stroke:#ff834f;stroke-width:0.338;stroke-miterlimit:4;stroke-dasharray:none;stroke-opacity:1"
           id="path887"
           d="m 95.25,182.56251 -1.13137,6.86863 -1.131371,-6.86863 -6.86863,-1.13137 6.86863,-1.13137 1.13137,-6.86863 1.131371,6.86863 6.86863,1.13137 z"
           transform="matrix(0.43566644,-0.112671,0.112671,0.43566644,27.528229,122.11708)" />
      </g>
    </g>
  </g>
</svg>
